<svg xmlns="http://www.w3.org/2000/svg" width="31" height="31" viewBox="0 0 31 31">
  <g>
    <g opacity=".25">
      <ellipse cx="15.5" cy="15.5" fill="rgb(101,153,64)" rx="15.5" ry="15.5"/>
    </g>
    <ellipse cx="15.5" cy="15.5" fill="rgb(101,153,64)" rx="4" ry="4"/>
  </g>
</svg>
